Data Analysis
…
Since the chisq p-value for adding Rural to the model is less than .05, we reject the null hypothesis that Rural is not a significant predictor of whether or not a region has experienced gentrification.

Therefore we will continue with this full model for the remained of our analysis.

###Assumptions

In order to use the full model with the predictor variables collegewhite, whitecollar, nodiploma, highschoolgrad, homeprice_med, and rural, we must first test how well this model satisfies assumptions.

For testing linearity, we will augment the model with predicted probabilities and residuals in order to examine binned residual plots for predicted probability and numeric variables.

model_aug <- augment(model_aic_full, type.predict = "response", type.residuals = "response")

model_aug

## # A tibble: 285 x 15
##    .rownames  gent collegewhite whitecollar nodiploma highschoolgrad
##  * <chr>     <dbl>        <dbl>       <dbl>     <dbl>          <dbl>
##  1 1             0       -8.46        -16.4    7.20           -4.89 
##  2 2             0        2.96          3.2   -0.640          -0.658
##  3 3             0       -0.735         4.3    0.807          -1.44 
##  4 4             0       -4.08          6.6    0.0800         -1.86 
##  5 5             0        2.31         -2.8    1.16           -4.08 
##  6 6             0       -1.25          0.5   -0.388          -4.55 
##  7 7             0       -0.224         4.3   -7.19            5.87 
##  8 8             0        2.17         18.4   -5.19           11.3  
##  9 9             0       -1.92         -5.6    2.05            0.321
## 10 10            0        5.44          6.9   -0.837           0.687
## # ... with 275 more rows, and 9 more variables: homeprice_med <dbl>,
## #   rural <chr>, .fitted <dbl>, .se.fit <dbl>, .resid <dbl>, .hat <dbl>,
## #   .sigma <dbl>, .cooksd <dbl>, .std.resid <dbl>
…
